%YAML 1.1
%TAG !u! tag:unity3d.com,2011:
--- !u!74 &7400000
AnimationClip:
  m_ObjectHideFlags: 0
  m_PrefabParentObject: {fileID: 0}
  m_PrefabInternal: {fileID: 0}
  m_Name: selectorjump
  serializedVersion: 3
  m_AnimationType: 1
  m_Compressed: 0
  m_RotationCurves:
  - curve:
      serializedVersion: 2
      m_Curve:
      - time: 0
        value: {x: -0, y: -0, z: -0, w: -1}
        inSlope: {x: 0, y: -3.1401577, z: 0, w: .0822293684}
        outSlope: {x: 0, y: -3.1401577, z: 0, w: .0822293684}
        tangentMode: -559038737
      - time: .0666666701
        value: {x: -0, y: -.207911715, z: -0, w: -.978147626}
        inSlope: {x: 0, y: -3.07153678, z: 0, w: .652876556}
        outSlope: {x: 0, y: -3.07153678, z: 0, w: .652876556}
        tangentMode: -559038737
      - time: .300000042
        value: {x: -0, y: -.809017062, z: -0, w: -.587785125}
        inSlope: {x: 0, y: -1.84573746, z: 0, w: 2.54044151}
        outSlope: {x: 0, y: -1.84573746, z: 0, w: 2.54044151}
        tangentMode: -559038737
      - time: .53333348
        value: {x: -0, y: -.994521856, z: -0, w: .104528867}
        inSlope: {x: 0, y: .32823652, z: 0, w: 3.12295461}
        outSlope: {x: 0, y: .32823652, z: 0, w: 3.12295461}
        tangentMode: -559038737
      - time: .766666591
        value: {x: -0, y: -.669130802, z: -0, w: .743144631}
        inSlope: {x: 0, y: 2.33359027, z: 0, w: 2.10117674}
        outSlope: {x: 0, y: 2.33359027, z: 0, w: 2.10117674}
        tangentMode: -559038737
      - time: .983333051
        value: {x: -0, y: -.0523367636, z: -0, w: .99862951}
        inSlope: {x: 0, y: 3.13585377, z: 0, w: .164345518}
        outSlope: {x: 0, y: 3.13585377, z: 0, w: .164345518}
        tangentMode: -559038737
      - time: 1
        value: {x: -0, y: 8.74227766e-08, z: -0, w: 1}
        inSlope: {x: 0, y: 3.1401577, z: 0, w: .0822279826}
        outSlope: {x: 0, y: 3.1401577, z: 0, w: .0822279826}
        tangentMode: -559038737
      m_PreInfinity: 2
      m_PostInfinity: 2
    path: 
  m_CompressedRotationCurves: []
  m_PositionCurves:
  - curve:
      serializedVersion: 2
      m_Curve:
      - time: 0
        value: {x: 0, y: .0199999996, z: 0}
        inSlope: {x: 0, y: .159999996, z: 0}
        outSlope: {x: 0, y: .159999996, z: 0}
        tangentMode: -559038737
      - time: .5
        value: {x: 0, y: .100000001, z: 0}
        inSlope: {x: 0, y: 0, z: 0}
        outSlope: {x: 0, y: 0, z: 0}
        tangentMode: -559038737
      - time: 1
        value: {x: 0, y: .0199999996, z: 0}
        inSlope: {x: 0, y: -.159999996, z: 0}
        outSlope: {x: 0, y: -.159999996, z: 0}
        tangentMode: -559038737
      m_PreInfinity: 2
      m_PostInfinity: 2
    path: 
  m_ScaleCurves: []
  m_FloatCurves: []
  m_SampleRate: 60
  m_WrapMode: 2
  m_Bounds:
    m_Center: {x: 0, y: 0, z: 0}
    m_Extent: {x: 0, y: 0, z: 0}
  m_MuscleClipInfo:
    m_StartTime: 0
    m_StopTime: 1
    m_OrientationOffsetY: 0
    m_Level: 0
    m_CycleOffset: 0
    m_LoopBlend: 0
    m_LoopBlendOrientation: 0
    m_LoopBlendPositionY: 0
    m_LoopBlendPositionXZ: 0
    m_KeepOriginalOrientation: 0
    m_KeepOriginalPositionY: 1
    m_KeepOriginalPositionXZ: 0
    m_HeightFromFeet: 0
    m_Mirror: 0
  m_EditorCurves:
  - curve:
      serializedVersion: 2
      m_Curve:
      - time: 0
        value: 0
        inSlope: 0
        outSlope: 0
        tangentMode: 10
      - time: .5
        value: 0
        inSlope: 0
        outSlope: 0
        tangentMode: 10
      m_PreInfinity: 2
      m_PostInfinity: 2
    attribute: m_LocalPosition.x
    path: 
    classID: 4
    script: {fileID: 0}
  - curve:
      serializedVersion: 2
      m_Curve:
      - time: 0
        value: .0199999996
        inSlope: .159999996
        outSlope: .159999996
        tangentMode: 10
      - time: .5
        value: .100000001
        inSlope: 0
        outSlope: 0
        tangentMode: 0
      - time: 1
        value: .0199999996
        inSlope: -.159999996
        outSlope: -.159999996
        tangentMode: 10
      m_PreInfinity: 2
      m_PostInfinity: 2
    attribute: m_LocalPosition.y
    path: 
    classID: 4
    script: {fileID: 0}
  - curve:
      serializedVersion: 2
      m_Curve:
      - time: 0
        value: 0
        inSlope: 0
        outSlope: 0
        tangentMode: 10
      - time: .5
        value: 0
        inSlope: 0
        outSlope: 0
        tangentMode: 10
      m_PreInfinity: 2
      m_PostInfinity: 2
    attribute: m_LocalPosition.z
    path: 
    classID: 4
    script: {fileID: 0}
  - curve:
      serializedVersion: 2
      m_Curve:
      - time: 0
        value: -0
        inSlope: 0
        outSlope: 0
        tangentMode: 0
      - time: .0666666701
        value: -0
        inSlope: 0
        outSlope: 0
        tangentMode: 0
      - time: .300000042
        value: -0
        inSlope: 0
        outSlope: 0
        tangentMode: 0
      - time: .53333348
        value: -0
        inSlope: 0
        outSlope: 0
        tangentMode: 0
      - time: .766666591
        value: -0
        inSlope: 0
        outSlope: 0
        tangentMode: 0
      - time: .983333051
        value: -0
        inSlope: 0
        outSlope: 0
        tangentMode: 0
      - time: 1
        value: -0
        inSlope: 0
        outSlope: 0
        tangentMode: 0
      m_PreInfinity: 2
      m_PostInfinity: 2
    attribute: m_LocalRotation.x
    path: 
    classID: 4
    script: {fileID: 0}
  - curve:
      serializedVersion: 2
      m_Curve:
      - time: 0
        value: -0
        inSlope: -3.1401577
        outSlope: -3.1401577
        tangentMode: 0
      - time: .0666666701
        value: -.207911715
        inSlope: -3.07153678
        outSlope: -3.07153678
        tangentMode: 0
      - time: .300000042
        value: -.809017062
        inSlope: -1.84573746
        outSlope: -1.84573746
        tangentMode: 0
      - time: .53333348
        value: -.994521856
        inSlope: .32823652
        outSlope: .32823652
        tangentMode: 0
      - time: .766666591
        value: -.669130802
        inSlope: 2.33359027
        outSlope: 2.33359027
        tangentMode: 0
      - time: .983333051
        value: -.0523367636
        inSlope: 3.13585377
        outSlope: 3.13585377
        tangentMode: 0
      - time: 1
        value: 8.74227766e-08
        inSlope: 3.1401577
        outSlope: 3.1401577
        tangentMode: 0
      m_PreInfinity: 2
      m_PostInfinity: 2
    attribute: m_LocalRotation.y
    path: 
    classID: 4
    script: {fileID: 0}
  - curve:
      serializedVersion: 2
      m_Curve:
      - time: 0
        value: -0
        inSlope: 0
        outSlope: 0
        tangentMode: 0
      - time: .0666666701
        value: -0
        inSlope: 0
        outSlope: 0
        tangentMode: 0
      - time: .300000042
        value: -0
        inSlope: 0
        outSlope: 0
        tangentMode: 0
      - time: .53333348
        value: -0
        inSlope: 0
        outSlope: 0
        tangentMode: 0
      - time: .766666591
        value: -0
        inSlope: 0
        outSlope: 0
        tangentMode: 0
      - time: .983333051
        value: -0
        inSlope: 0
        outSlope: 0
        tangentMode: 0
      - time: 1
        value: -0
        inSlope: 0
        outSlope: 0
        tangentMode: 0
      m_PreInfinity: 2
      m_PostInfinity: 2
    attribute: m_LocalRotation.z
    path: 
    classID: 4
    script: {fileID: 0}
  - curve:
      serializedVersion: 2
      m_Curve:
      - time: 0
        value: -1
        inSlope: .0822293684
        outSlope: .0822293684
        tangentMode: 0
      - time: .0666666701
        value: -.978147626
        inSlope: .652876556
        outSlope: .652876556
        tangentMode: 0
      - time: .300000042
        value: -.587785125
        inSlope: 2.54044151
        outSlope: 2.54044151
        tangentMode: 0
      - time: .53333348
        value: .104528867
        inSlope: 3.12295461
        outSlope: 3.12295461
        tangentMode: 0
      - time: .766666591
        value: .743144631
        inSlope: 2.10117674
        outSlope: 2.10117674
        tangentMode: 0
      - time: .983333051
        value: .99862951
        inSlope: .164345518
        outSlope: .164345518
        tangentMode: 0
      - time: 1
        value: 1
        inSlope: .0822279826
        outSlope: .0822279826
        tangentMode: 0
      m_PreInfinity: 2
      m_PostInfinity: 2
    attribute: m_LocalRotation.w
    path: 
    classID: 4
    script: {fileID: 0}
  m_EulerEditorCurves:
  - curve:
      serializedVersion: 2
      m_Curve:
      - time: .5
        value: 0
        inSlope: 0
        outSlope: 0
        tangentMode: 10
      - time: 1
        value: 0
        inSlope: 0
        outSlope: 0
        tangentMode: 10
      m_PreInfinity: 2
      m_PostInfinity: 2
    attribute: localEulerAnglesBaked.x
    path: 
    classID: 4
    script: {fileID: 0}
  - curve:
      serializedVersion: 2
      m_Curve:
      - time: 0
        value: 0
        inSlope: 360
        outSlope: 360
        tangentMode: 10
      - time: .5
        value: 180
        inSlope: 360
        outSlope: 360
        tangentMode: 10
      - time: 1
        value: 360
        inSlope: 360
        outSlope: 360
        tangentMode: 10
      m_PreInfinity: 2
      m_PostInfinity: 2
    attribute: localEulerAnglesBaked.y
    path: 
    classID: 4
    script: {fileID: 0}
  - curve:
      serializedVersion: 2
      m_Curve:
      - time: 0
        value: 0
        inSlope: 0
        outSlope: 0
        tangentMode: 10
      - time: .5
        value: 0
        inSlope: 0
        outSlope: 0
        tangentMode: 10
      - time: 1
        value: 0
        inSlope: 0
        outSlope: 0
        tangentMode: 10
      m_PreInfinity: 2
      m_PostInfinity: 2
    attribute: localEulerAnglesBaked.z
    path: 
    classID: 4
    script: {fileID: 0}
  m_Events: []
